item_16/F0002CH1.CSV

Record Length,2.500000e+03,,   0.000000000000,   0.53600,
Sample Interval,2.000000e-01,,   0.200000000000,   0.56000,
Trigger Point,0.000000000000e+00,,   0.400000000000,   0.56800,
,,,   0.600000000000,   0.55200,
,,,   0.800000000000,   0.55200,
,,,   1.000000000000,   0.55200,
Source,CH1,,   1.200000000000,   0.56000,
Vertical Units,V,,   1.400000000000,   0.55200,
Vertical Scale,2.000000e-01,,   1.600000000000,   0.53600,
Vertical Offset,0.000000e+00,,   1.800000000000,   0.54400,
Horizontal Units,s,,   2.000000000000,   0.54400,
Horizontal Scale,5.000000e+01,,   2.200000000000,   0.56800,
Pt Fmt,Y,,   2.400000000000,   0.54400,
Yzero,0.000000e+00,,   2.600000000000,   0.55200,
Probe Atten,1.000000e+01,,   2.800000000000,   0.57600,
Model Number,TBS1062,,   3.000000000000,   0.58400,
Serial Number,C011593,,   3.200000000000,   0.54400,
Firmware Version,FV:v26.01,,   3.400000000000,   0.57600,
,,,3.600000000000,   0.57600,
,,,3.800000000000,   0.54400,
,,,4.000000000000,   0.48800,
,,,4.200000000000,   0.55200,
,,,4.400000000000,   0.56000,
,,,4.600000000000,   0.56000,
,,,4.800000000000,   0.53600,
,,,5.000000000000,   0.56800,
,,,5.200000000000,   0.51200,
,,,5.400000000000,   0.57600,
,,,5.600000000000,   0.57600,
,,,5.800000000000,   0.56800,
,,,6.000000000000,   0.57600,
,,,6.200000000000,   0.53600,
,,,6.400000000000,   0.55200,
,,,6.600000000000,   0.53600,
,,,6.800000000000,   0.56000,
,,,7.000000000000,   0.57600,
,,,7.200000000000,   0.58400,
,,,7.400000000000,   0.54400,
,,,7.600000000000,   0.53600,
,,,7.800000000000,   0.56000,
,,,8.000000000000,   0.56800,
,,,8.200000000000,   0.57600,
,,,8.400000000000,   0.55200,
,,,8.600000000000,   0.56000,
,,,8.800000000000,   0.56800,
,,,9.000000000000,   0.57600,
,,,9.200000000000,   0.60000,
,,,9.400000000000,   0.51200,
,,,9.600000000000,   0.56000,
,,,9.800000000000,   0.57600,
,,,10.000000000000,   0.60000,
,,,10.200000000000,   0.56800,
,,,10.400000000000,   0.56800,
,,,10.600000000000,   0.56800,
,,,10.800000000000,   0.57600,
,,,11.000000000000,   0.57600,
,,,11.200000000000,   0.56800,
,,,11.400000000000,   0.56800,
,,,11.600000000000,   0.56000,
,,,11.800000000000,   0.58400,
,,,12.000000000000,   0.57600,
,,,12.200000000000,   0.55200,
,,,12.400000000000,   0.57600,
,,,12.600000000000,   0.55200,
,,,12.800000000000,   0.56800,
,,,13.000000000000,   0.57600,
,,,13.200000000000,   0.56000,
,,,13.400000000000,   0.56000,
,,,13.600000000000,   0.58400,
,,,13.800000000000,   0.60000,
,,,14.000000000000,   0.57600,
,,,14.200000000000,   0.58400,
,,,14.400000000000,   0.56800,
,,,14.600000000000,   0.57600,
,,,14.800000000000,   0.55200,
,,,15.000000000000,   0.58400,
,,,15.200000000000,   0.56800,
,,,15.400000000000,   0.56000,
,,,15.600000000000,   0.57600,
,,,15.800000000000,   0.57600,
,,,16.000000000000,   0.57600,
,,,16.200000000000,   0.60000,
,,,16.400000000000,   0.56800,
,,,16.600000000000,   0.56800,
,,,16.800000000000,   0.55200,
,,,17.000000000000,   0.56800,
,,,17.200000000000,   0.57600,
,,,17.400000000000,   0.58400,
,,,17.600000000000,   0.52000,
,,,17.800000000000,   0.58400,
,,,18.000000000000,   0.55200,
,,,18.200000000000,   0.56000,
,,,18.400000000000,   0.60000,
,,,18.600000000000,   0.57600,
,,,18.800000000000,   0.55200,
,,,19.000000000000,   0.59200,
,,,19.200000000000,   0.63200,
,,,19.400000000000,   0.58400,
,,,19.600000000000,   0.59200,
,,,19.800000000000,   0.56800,
,,,20.000000000000,   0.55200,
,,,20.200000000000,   0.55200,
,,,20.400000000000,   0.57600,
,,,20.600000000000,   0.57600,
,,,20.800000000000,   0.56800,
,,,21.000000000000,   0.56800,
,,,21.200000000000,   0.53600,
,,,21.400000000000,   0.56800,
,,,21.600000000000,   0.54400,
,,,21.800000000000,   0.55200,
,,,22.000000000000,   0.56000,
,,,22.200000000000,   0.56800,
,,,22.400000000000,   0.56800,
,,,22.600000000000,   0.56800,
,,,22.800000000000,   0.55200,
,,,23.000000000000,   0.56000,
,,,23.200000000000,   0.56800,
,,,23.400000000000,   0.56000,
,,,23.600000000000,   0.53600,
,,,23.800000000000,   0.50400,
,,,24.000000000000,   0.56000,
,,,24.200000000000,   0.53600,
,,,24.400000000000,   0.54400,
,,,24.600000000000,   0.52000,
,,,24.800000000000,   0.52800,
,,,25.000000000000,   0.52000,
,,,25.200000000000,   0.51200,
,,,25.400000000000,   0.51200,
,,,25.600000000000,   0.48800,
,,,25.800000000000,   0.50400,
,,,26.000000000000,   0.50400,
,,,26.200000000000,   0.50400,
,,,26.400000000000,   0.50400,
,,,26.600000000000,   0.51200,
,,,26.800000000000,   0.49600,
,,,27.000000000000,   0.49600,
,,,27.200000000000,   0.49600,
,,,27.400000000000,   0.50400,
,,,27.600000000000,   0.51200,
,,,27.800000000000,   0.48800,
,,,28.000000000000,   0.47200,
,,,28.200000000000,   0.49600,
,,,28.400000000000,   0.48800,
,,,28.600000000000,   0.48000,
,,,28.800000000000,   0.48800,
,,,29.000000000000,   0.45600,
,,,29.200000000000,   0.48800,
,,,29.400000000000,   0.48800,
,,,29.600000000000,   0.47200,
,,,29.800000000000,   0.47200,
,,,30.000000000000,   0.48000,
,,,30.200000000000,   0.47200,
,,,30.400000000000,   0.48800,
,,,30.600000000000,   0.46400,
,,,30.800000000000,   0.49600,
,,,31.000000000000,   0.48800,
,,,31.200000000000,   0.44800,
,,,31.400000000000,   0.48000,
,,,31.600000000000,   0.47200,
,,,31.800000000000,   0.48000,
,,,32.000000000000,   0.47200,
,,,32.200000000000,   0.44800,
,,,32.400000000000,   0.47200,
,,,32.600000000000,   0.48000,
,,,32.800000000000,   0.45600,
,,,33.000000000000,   0.44800,
,,,33.200000000000,   0.44800,
,,,33.400000000000,   0.44800,
,,,33.600000000000,   0.47200,
,,,33.800000000000,   0.44000,
,,,34.000000000000,   0.46400,
,,,34.200000000000,   0.45600,
,,,34.400000000000,   0.45600,
,,,34.600000000000,   0.44800,
,,,34.800000000000,   0.45600,
,,,35.000000000000,   0.44800,
,,,35.200000000000,   0.46400,
,,,35.400000000000,   0.46400,
,,,35.600000000000,   0.45600,
,,,35.800000000000,   0.40800,
,,,36.000000000000,   0.44800,
,,,36.200000000000,   0.43200,
,,,36.400000000000,   0.44800,
,,,36.600000000000,   0.44800,
,,,36.800000000000,   0.44800,
,,,37.000000000000,   0.45600,
,,,37.200000000000,   0.43200,
,,,37.400000000000,   0.47200,
,,,37.600000000000,   0.44800,
,,,37.800000000000,   0.44800,
,,,38.000000000000,   0.46400,
,,,38.200000000000,   0.44000,
,,,38.400000000000,   0.45600,
,,,38.600000000000,   0.45600,
,,,38.800000000000,   0.47200,
,,,39.000000000000,   0.46400,
,,,39.200000000000,   0.44000,
,,,39.400000000000,   0.44800,
,,,39.600000000000,   0.44800,
,,,39.800000000000,   0.43200,
,,,40.000000000000,   0.44000,
,,,40.200000000000,   0.44800,
,,,40.400000000000,   0.44800,
,,,40.600000000000,   0.45600,
,,,40.800000000000,   0.44800,
,,,41.000000000000,   0.44800,
,,,41.200000000000,   0.44800,
,,,41.400000000000,   0.44800,
,,,41.600000000000,   0.44000,
,,,41.800000000000,   0.44800,
,,,42.000000000000,   0.44800,
,,,42.200000000000,   0.44800,
,,,42.400000000000,   0.46400,
,,,42.600000000000,   0.44800,
,,,42.800000000000,   0.44000,
,,,43.000000000000,   0.44800,
,,,43.200000000000,   0.44000,
,,,43.400000000000,   0.44800,
,,,43.600000000000,   0.43200,
,,,43.800000000000,   0.44800,
,,,44.000000000000,   0.44800,
,,,44.200000000000,   0.44000,
,,,44.400000000000,   0.44800,
,,,44.600000000000,   0.44800,
,,,44.800000000000,   0.44800,
,,,45.000000000000,   0.44800,
,,,45.200000000000,   0.44800,
,,,45.400000000000,   0.44800,
,,,45.600000000000,   0.42400,
,,,45.800000000000,   0.42400,
,,,46.000000000000,   0.44800,
,,,46.200000000000,   0.44800,
,,,46.400000000000,   0.44800,
,,,46.600000000000,   0.44000,
,,,46.800000000000,   0.44800,
,,,47.000000000000,   0.44800,
,,,47.200000000000,   0.44800,
,,,47.400000000000,   0.44800,
,,,47.600000000000,   0.44800,
,,,47.800000000000,   0.44800,
,,,48.000000000000,   0.44000,
,,,48.200000000000,   0.43200,
,,,48.400000000000,   0.44800,
,,,48.600000000000,   0.45600,
,,,48.800000000000,   0.44800,
,,,49.000000000000,   0.44800,
,,,49.200000000000,   0.45600,
,,,49.400000000000,   0.44800,
,,,49.600000000000,   0.44000,
,,,49.800000000000,   0.44800,
,,,50.000000000000,   0.44800,
,,,50.200000000000,   0.44800,
,,,50.400000000000,   0.44000,
,,,50.600000000000,   0.44800,
,,,50.800000000000,   0.45600,
,,,51.000000000000,   0.44800,
,,,51.200000000000,   0.44800,
,,,51.400000000000,   0.43200,
,,,51.600000000000,   0.44800,
,,,51.800000000000,   0.44800,
,,,52.000000000000,   0.44000,
,,,52.200000000000,   0.44800,
,,,52.400000000000,   0.44800,
,,,52.600000000000,   0.44000,
,,,52.800000000000,   0.44000,
,,,53.000000000000,   0.44800,
,,,53.200000000000,   0.44000,
,,,53.400000000000,   0.44000,
,,,53.600000000000,   0.42400,
,,,53.800000000000,   0.41600,
,,,54.000000000000,   0.42400,
,,,54.200000000000,   0.44800,
,,,54.400000000000,   0.44000,
,,,54.600000000000,   0.44800,
,,,54.800000000000,   0.42400,
,,,55.000000000000,   0.44800,
,,,55.200000000000,   0.44800,
,,,55.400000000000,   0.44800,
,,,55.600000000000,   0.42400,
,,,55.800000000000,   0.40800,
,,,56.000000000000,   0.44800,
,,,56.200000000000,   0.43200,
,,,56.400000000000,   0.44800,
,,,56.600000000000,   0.45600,
,,,56.800000000000,   0.44000,
,,,57.000000000000,   0.43200,
,,,57.200000000000,   0.46400,
,,,57.400000000000,   0.44000,
,,,57.600000000000,   0.43200,
,,,57.800000000000,   0.44000,
,,,58.000000000000,   0.44800,
,,,58.200000000000,   0.44000,
,,,58.400000000000,   0.44000,
,,,58.600000000000,  -1.02400,
,,,58.800000000000,  -1.02400,
,,,59.000000000000,  -1.02400,
,,,59.200000000000,  -1.02400,
,,,59.400000000000,  -1.02400,
,,,59.600000000000,  -1.02400,
,,,59.800000000000,  -1.02400,
,,,60.000000000000,  -1.02400,
,,,60.200000000000,  -1.02400,
,,,60.400000000000,  -1.02400,
,,,60.600000000000,  -1.02400,
,,,60.800000000000,  -1.02400,
,,,61.000000000000,  -1.02400,
,,,61.200000000000,  -1.02400,
,,,61.400000000000,  -1.02400,
,,,61.600000000000,  -1.02400,
,,,61.800000000000,  -1.02400,
,,,62.000000000000,  -1.02400,
,,,62.200000000000,  -1.02400,
,,,62.400000000000,  -1.02400,
,,,62.600000000000,  -1.02400,
,,,62.800000000000,  -1.02400,
,,,63.000000000000,  -1.02400,
,,,63.200000000000,  -1.02400,
,,,63.400000000000,  -1.02400,
,,,63.600000000000,  -1.02400,
,,,63.800000000000,  -1.02400,
,,,64.000000000000,  -1.02400,
,,,64.200000000000,  -1.02400,
,,,64.400000000000,  -1.02400,
,,,64.600000000000,  -1.02400,
,,,64.800000000000,  -1.02400,
,,,65.000000000000,  -1.02400,
,,,65.200000000000,  -1.02400,
,,,65.400000000000,  -1.02400,
,,,65.600000000000,  -1.02400,
,,,65.800000000000,  -1.02400,
,,,66.000000000000,  -1.02400,
,,,66.200000000000,  -1.02400,
,,,66.400000000000,  -1.02400,
,,,66.600000000000,  -1.02400,
,,,66.800000000000,  -1.02400,
,,,67.000000000000,  -1.02400,
,,,67.200000000000,  -1.02400,
,,,67.400000000000,  -1.02400,
,,,67.600000000000,  -1.02400,
,,,67.800000000000,  -1.02400,
,,,68.000000000000,  -1.02400,
,,,68.200000000000,  -1.02400,
,,,68.400000000000,  -1.02400,
,,,68.600000000000,  -1.02400,
,,,68.800000000000,  -1.02400,
,,,69.000000000000,  -1.02400,
,,,69.200000000000,  -1.02400,
,,,69.400000000000,  -1.02400,
,,,69.600000000000,  -1.02400,
,,,69.800000000000,  -1.02400,
,,,70.000000000000,  -1.02400,
,,,70.200000000000,  -1.02400,
,,,70.400000000000,  -1.02400,
,,,70.600000000000,  -1.02400,
,,,70.800000000000,  -1.02400,
,,,71.000000000000,  -1.02400,
,,,71.200000000000,  -1.02400,
,,,71.400000000000,  -1.02400,
,,,71.600000000000,  -1.02400,
,,,71.800000000000,  -1.02400,
,,,72.000000000000,  -1.02400,
,,,72.200000000000,  -1.02400,
,,,72.400000000000,  -1.02400,
,,,72.600000000000,  -1.02400,
,,,72.800000000000,  -1.02400,
,,,73.000000000000,  -1.02400,
,,,73.200000000000,  -1.02400,
,,,73.400000000000,  -1.02400,
,,,73.600000000000,  -1.02400,
,,,73.800000000000,  -1.02400,
,,,74.000000000000,  -1.02400,
,,,74.200000000000,  -1.02400,
,,,74.400000000000,  -1.02400,
,,,74.600000000000,  -1.02400,
,,,74.800000000000,  -1.02400,
,,,75.000000000000,  -1.02400,
,,,75.200000000000,  -1.02400,
,,,75.400000000000,  -1.02400,
,,,75.600000000000,  -1.02400,
,,,75.800000000000,  -1.02400,
,,,76.000000000000,  -1.02400,
,,,76.200000000000,  -1.02400,
,,,76.400000000000,  -1.02400,
,,,76.600000000000,  -1.02400,
,,,76.800000000000,  -1.02400,
,,,77.000000000000,  -1.02400,
,,,77.200000000000,  -1.02400,
,,,77.400000000000,  -1.02400,
,,,77.600000000000,  -1.02400,
,,,77.800000000000,  -1.02400,
,,,78.000000000000,  -1.02400,
,,,78.200000000000,  -1.02400,
,,,78.400000000000,  -1.02400,
,,,78.600000000000,  -1.02400,
,,,78.800000000000,  -1.02400,
,,,79.000000000000,  -1.02400,
,,,79.200000000000,  -1.02400,
,,,79.400000000000,  -1.02400,
,,,79.600000000000,  -1.02400,
,,,79.800000000000,  -1.02400,
,,,80.000000000000,  -1.02400,
,,,80.200000000000,  -1.02400,
,,,80.400000000000,  -1.02400,
,,,80.600000000000,  -1.02400,
,,,80.800000000000,  -1.02400,
,,,81.000000000000,  -1.02400,
,,,81.200000000000,  -1.02400,
,,,81.400000000000,  -1.02400,
,,,81.600000000000,  -1.02400,
,,,81.800000000000,  -1.02400,
,,,82.000000000000,  -1.02400,
,,,82.200000000000,  -1.02400,
,,,82.400000000000,  -1.02400,
,,,82.600000000000,  -1.02400,
,,,82.800000000000,  -1.02400,
,,,83.000000000000,  -1.02400,
,,,83.200000000000,  -1.02400,
,,,83.400000000000,  -1.02400,
,,,83.600000000000,  -1.02400,
,,,83.800000000000,  -1.02400,
,,,84.000000000000,  -1.02400,
,,,84.200000000000,  -1.02400,
,,,84.400000000000,  -1.02400,
,,,84.600000000000,  -1.02400,
,,,84.800000000000,  -1.02400,
,,,85.000000000000,  -1.02400,
,,,85.200000000000,  -1.02400,
,,,85.400000000000,  -1.02400,
,,,85.600000000000,  -1.02400,
,,,85.800000000000,  -1.02400,
,,,86.000000000000,  -1.02400,
,,,86.200000000000,  -1.02400,
,,,86.400000000000,  -1.02400,
,,,86.600000000000,  -1.02400,
,,,86.800000000000,  -1.02400,
,,,87.000000000000,  -1.02400,
,,,87.200000000000,  -1.02400,
,,,87.400000000000,  -1.02400,
,,,87.600000000000,  -1.02400,
,,,87.800000000000,  -1.02400,
,,,88.000000000000,  -1.02400,
,,,88.200000000000,  -1.02400,
,,,88.400000000000,  -1.02400,
,,,88.600000000000,  -1.02400,
,,,88.800000000000,  -1.02400,
,,,89.000000000000,  -1.02400,
,,,89.200000000000,  -1.02400,
,,,89.400000000000,  -1.02400,
,,,89.600000000000,  -1.02400,
,,,89.800000000000,  -1.02400,
,,,90.000000000000,  -1.02400,
,,,90.200000000000,  -1.02400,
,,,90.400000000000,  -1.02400,
,,,90.600000000000,  -1.02400,
,,,90.800000000000,  -1.02400,
,,,91.000000000000,  -1.02400,
,,,91.200000000000,  -1.02400,
,,,91.400000000000,  -1.02400,
,,,91.600000000000,  -1.02400,
,,,91.800000000000,  -1.02400,
,,,92.000000000000,  -1.02400,
,,,92.200000000000,  -1.02400,
,,,92.400000000000,  -1.02400,
,,,92.600000000000,  -1.02400,
,,,92.800000000000,  -1.02400,
,,,93.000000000000,  -1.02400,
,,,93.200000000000,  -1.02400,
,,,93.400000000000,  -1.02400,
,,,93.600000000000,  -1.02400,
,,,93.800000000000,  -1.02400,
,,,94.000000000000,  -1.02400,
,,,94.200000000000,  -1.02400,
,,,94.400000000000,  -1.02400,
,,,94.600000000000,  -1.02400,
,,,94.800000000000,  -1.02400,
,,,95.000000000000,  -1.02400,
,,,95.200000000000,  -1.02400,
,,,95.400000000000,  -1.02400,
,,,95.600000000000,  -1.02400,
,,,95.800000000000,  -1.02400,
,,,96.000000000000,  -1.02400,
,,,96.200000000000,  -1.02400,
,,,96.400000000000,  -1.02400,
,,,96.600000000000,  -1.02400,
,,,96.800000000000,  -1.02400,
,,,97.000000000000,  -1.02400,
,,,97.200000000000,  -1.02400,
,,,97.400000000000,  -1.02400,
,,,97.600000000000,  -1.02400,
,,,97.800000000000,  -1.02400,
,,,98.000000000000,  -1.02400,
,,,98.200000000000,  -1.02400,
,,,98.400000000000,  -1.02400,
,,,98.600000000000,  -1.02400,
,,,98.800000000000,  -1.02400,
,,,99.000000000000,  -1.02400,
,,,99.200000000000,  -1.02400,
,,,99.400000000000,  -1.02400,
,,,99.600000000000,  -1.02400,
,,,99.800000000000,  -1.02400,
,,,100.000000000000,  -1.02400,
,,,100.200000000000,  -1.02400,
,,,100.400000000000,  -1.02400,
,,,100.600000000000,  -1.02400,
,,,100.800000000000,  -1.02400,
,,,101.000000000000,  -1.02400,
,,,101.200000000000,  -1.02400,
,,,101.400000000000,  -1.02400,
,,,101.600000000000,  -1.02400,
,,,101.800000000000,  -1.02400,
,,,102.000000000000,  -1.02400,
,,,102.200000000000,  -1.02400,
,,,102.400000000000,  -1.02400,
,,,102.600000000000,  -1.02400,
,,,102.800000000000,  -1.02400,
,,,103.000000000000,  -1.02400,
,,,103.200000000000,  -1.02400,
,,,103.400000000000,  -1.02400,
,,,103.600000000000,  -1.02400,
,,,103.800000000000,  -1.02400,
,,,104.000000000000,  -1.02400,
,,,104.200000000000,  -1.02400,
,,,104.400000000000,  -1.02400,
,,,104.600000000000,  -1.02400,
,,,104.800000000000,  -1.02400,
,,,105.000000000000,  -1.02400,
,,,105.200000000000,  -1.02400,
,,,105.400000000000,  -1.02400,
,,,105.600000000000,  -1.02400,
,,,105.800000000000,  -1.02400,
,,,106.000000000000,  -1.02400,
,,,106.200000000000,  -1.02400,
,,,106.400000000000,  -1.02400,
,,,106.600000000000,  -1.02400,
,,,106.800000000000,  -1.02400,
,,,107.000000000000,  -1.02400,
,,,107.200000000000,  -1.02400,
,,,107.400000000000,  -1.02400,
,,,107.600000000000,  -1.02400,
,,,107.800000000000,  -1.02400,
,,,108.000000000000,  -1.02400,
,,,108.200000000000,  -1.02400,
,,,108.400000000000,  -1.02400,
,,,108.600000000000,  -1.02400,
,,,108.800000000000,  -1.02400,
,,,109.000000000000,  -1.02400,
,,,109.200000000000,  -1.02400,
,,,109.400000000000,  -1.02400,
,,,109.600000000000,  -1.02400,
,,,109.800000000000,  -1.02400,
,,,110.000000000000,  -1.02400,
,,,110.200000000000,  -1.02400,
,,,110.400000000000,  -1.02400,
,,,110.600000000000,  -1.02400,
,,,110.800000000000,  -1.02400,
,,,111.000000000000,  -1.02400,
,,,111.200000000000,  -1.02400,
,,,111.400000000000,  -1.02400,
,,,111.600000000000,  -1.02400,
,,,111.800000000000,  -1.02400,
,,,112.000000000000,  -1.02400,
,,,112.200000000000,  -1.02400,
,,,112.400000000000,  -1.02400,
,,,112.600000000000,  -1.02400,
,,,112.800000000000,  -1.02400,
,,,113.000000000000,  -1.02400,
,,,113.200000000000,  -1.02400,
,,,113.400000000000,  -1.02400,
,,,113.600000000000,  -1.02400,
,,,113.800000000000,  -1.02400,
,,,114.000000000000,  -1.02400,
,,,114.200000000000,  -1.02400,
,,,114.400000000000,  -1.02400,
,,,114.600000000000,  -1.02400,
,,,114.800000000000,  -1.02400,
,,,115.000000000000,  -1.02400,
,,,115.200000000000,  -1.02400,
,,,115.400000000000,  -1.02400,
,,,115.600000000000,  -1.02400,
,,,115.800000000000,  -1.02400,
,,,116.000000000000,  -1.02400,
,,,116.200000000000,  -1.02400,
,,,116.400000000000,  -1.02400,
,,,116.600000000000,  -1.02400,
,,,116.800000000000,  -1.02400,
,,,117.000000000000,  -1.02400,
,,,117.200000000000,  -1.02400,
,,,117.400000000000,  -1.02400,
,,,117.600000000000,  -1.02400,
,,,117.800000000000,  -1.02400,
,,,118.000000000000,  -1.02400,
,,,118.200000000000,  -1.02400,
,,,118.400000000000,  -1.02400,
,,,118.600000000000,  -1.02400,
,,,118.800000000000,  -1.02400,
,,,119.000000000000,  -1.02400,
,,,119.200000000000,  -1.02400,
,,,119.400000000000,  -1.02400,
,,,119.600000000000,  -1.02400,
,,,119.800000000000,  -1.02400,
,,,120.000000000000,  -1.02400,
,,,120.200000000000,  -1.02400,
,,,120.400000000000,  -1.02400,
,,,120.600000000000,  -1.02400,
,,,120.800000000000,  -1.02400,
,,,121.000000000000,  -1.02400,
,,,121.200000000000,  -1.02400,
,,,121.400000000000,  -1.02400,
,,,121.600000000000,  -1.02400,
,,,121.800000000000,  -1.02400,
,,,122.000000000000,  -1.02400,
,,,122.200000000000,  -1.02400,
,,,122.400000000000,  -1.02400,
,,,122.600000000000,  -1.02400,
,,,122.800000000000,  -1.02400,
,,,123.000000000000,  -1.02400,
,,,123.200000000000,  -1.02400,
,,,123.400000000000,  -1.02400,
,,,123.600000000000,  -1.02400,
,,,123.800000000000,  -1.02400,
,,,124.000000000000,  -1.02400,
,,,124.200000000000,  -1.02400,
,,,124.400000000000,  -1.02400,
,,,124.600000000000,  -1.02400,
,,,124.800000000000,  -1.02400,
,,,125.000000000000,  -1.02400,
,,,125.200000000000,  -1.02400,
,,,125.400000000000,  -1.02400,
,,,125.600000000000,  -1.02400,
,,,125.800000000000,  -1.02400,
